module gitlab.com/gitlab-org/gitaly/tools/protoc-gen-go-grpc

go 1.23

require (
	google.golang.org/grpc/cmd/protoc-gen-go-grpc v1.5.1
	google.golang.org/protobuf v1.34.1 // indirect
)

require github.com/google/go-cmp v0.5.9 // indirect
